%YAML 1.1
%TAG !u! tag:unity3d.com,2011:
--- !u!78 &1
TagManager:
  serializedVersion: 2
  tags:
  - boss
  - mook
  - arrows
  - mookUp
  - mookLeft
  - mookRight
  - mookDown
  - arrowLeft
  - arrowUp
  - arrowDown
  - arrowRight
  layers:
  - Default
  - TransparentFX
  - Ignore Raycast
  - 
  - Water
  - UI
  - 
  - 
  - 
  - 
  - 
  - 
  - 
  - 
  - 
  - 
  - 
  - 
  - 
  - 
  - 
  - 
  - 
  - 
  - 
  - 
  - 
  - 
  - 
  - 
  - 
  - 
  m_SortingLayers:
  - name: Default
    uniqueID: 0
    locked: 0
  - name: arrow
    uniqueID: 3437022129
    locked: 0
  - name: mook
    uniqueID: 1976376179
    locked: 0
  - name: boss
    uniqueID: 2079866369
    locked: 0
